Item,Label,Prob
0021e90e4.png,Charlock,0.9981070756912231
003d61042.png,Cleavers,0.9197089076042175
007b3da8b.png,Cleavers,0.9871587753295898
0086a6340.png,Cleavers,0.9999905824661255
00c47e980.png,Cleavers,0.9906293749809265
00d090cde.png,Cleavers,0.998561680316925
00ef713a8.png,Cleavers,0.998017430305481
01291174f.png,Cleavers,0.967660129070282
026716f9b.png,Cleavers,0.7315765619277954
02cfeb38d.png,Cleavers,0.827372670173645
03566743d.png,Cleavers,0.9365812540054321
03a2ee656.png,Charlock,0.8530632853507996
03e322a29.png,Cleavers,0.9515984654426575
03ef36742.png,Cleavers,0.9994818568229675
043449b0b.png,Cleavers,0.9525739550590515
0437393b1.png,Cleavers,0.9972066283226013
04814f36d.png,Cleavers,0.9999986886978149
05341a8a6.png,Cleavers,0.9998959302902222
060450d79.png,Cleavers,0.9985730648040771
060f1dc84.png,Cleavers,0.8876750469207764
0625f063b.png,Charlock,0.992954432964325
063363305.png,Charlock,0.69366854429245
06d12f6fa.png,Cleavers,0.9757773876190186
071cb3ece.png,Cleavers,0.9816889762878418
0751c0bbc.png,Cleavers,0.9999090433120728
07e62f903.png,Cleavers,0.9999902248382568
085974290.png,Cleavers,0.9999598264694214
0885e7690.png,Cleavers,0.9999663829803467
089ad62a7.png,Cleavers,0.8903268575668335
08d591441.png,Cleavers,0.9999624490737915
0911d3dee.png,Charlock,0.8385003209114075
099b961ec.png,Cleavers,0.6780169010162354
0a64e3e6c.png,Charlock,0.6904064416885376
0ad9e7dfb.png,Cleavers,0.9996216297149658
0ae6668fa.png,Cleavers,0.9457541704177856
0bf7bfb05.png,Cleavers,0.5846673846244812
0c27cf05f.png,Cleavers,0.9994213581085205
0c4199daa.png,Cleavers,0.8201187252998352
0c45ace27.png,Cleavers,0.9995608925819397
0c51bf229.png,Cleavers,0.999929666519165
0c5f6c493.png,Charlock,0.8948763012886047
0caeda5df.png,Cleavers,0.9378875494003296
0d117d910.png,Cleavers,0.9999586343765259
0d31e6602.png,Charlock,0.902087390422821
0dba99002.png,Cleavers,0.9901748895645142
0e8492cb1.png,Cleavers,0.9999983310699463
0ebf8f2f4.png,Cleavers,0.9916915893554688
0ee4ad224.png,Cleavers,0.9997327923774719
0f6cbe5e8.png,Cleavers,0.9999881982803345
0fb233ad6.png,Charlock,0.999822199344635
115f93ecc.png,Cleavers,0.8383917808532715
116b136de.png,Cleavers,0.9999885559082031
1191ba346.png,Cleavers,0.8989036083221436
11d3f68ff.png,Cleavers,0.896146833896637
122913909.png,Cleavers,0.9999274015426636
12625488b.png,Cleavers,0.9965479969978333
126a71ce0.png,Cleavers,0.9999560117721558
1312065a5.png,Charlock,0.9532991051673889
1364b297a.png,Cleavers,0.9985081553459167
1376f3b63.png,Charlock,0.5645955204963684
13b9fa92d.png,Cleavers,0.9985760450363159
1459e96a0.png,Cleavers,0.9633830785751343
148bbda66.png,Cleavers,0.9400547742843628
14bb43eee.png,Cleavers,0.9118815660476685
1541bdb2e.png,Cleavers,0.9997825026512146
1623fb9e1.png,Cleavers,0.6151145100593567
16357b436.png,Cleavers,0.7027720808982849
16467a950.png,Cleavers,0.9613478779792786
165681fd9.png,Cleavers,0.9903578162193298
1694a70e4.png,Cleavers,0.9989058971405029
16fd2e01a.png,Cleavers,0.7714106440544128
172f9b10b.png,Cleavers,0.9998527765274048
17529c555.png,Cleavers,0.9999879598617554
1758a1baf.png,Cleavers,0.9993247985839844
177d7e2a4.png,Charlock,0.966719388961792
17a78fb44.png,Cleavers,0.6588348150253296
17d5e5ac4.png,Cleavers,0.8817902207374573
1821eb11a.png,Cleavers,0.999957799911499
187668bde.png,Cleavers,0.9997561573982239
1926e82fd.png,Cleavers,0.9869181513786316
19618ad6a.png,Cleavers,0.9059838652610779
19b51843a.png,Cleavers,0.9997920393943787
19e58cc5e.png,Cleavers,0.9999356269836426
19fdf19fb.png,Cleavers,0.6450426578521729
1b490196c.png,Cleavers,0.7150203585624695
1b6a6494d.png,Cleavers,0.9979966282844543
1be0713da.png,Cleavers,0.9352491497993469
1bf9b94a6.png,Cleavers,0.999968409538269
1c52ea820.png,Cleavers,0.9303780794143677
1c680883c.png,Cleavers,0.9625136852264404
1cfd91582.png,Cleavers,0.9982430934906006
1d0cbd819.png,Cleavers,0.6497573256492615
1d321253f.png,Cleavers,0.7727488875389099
1d48b7564.png,Cleavers,0.6901882886886597
1d56351b2.png,Cleavers,0.9986369013786316
1dc7c45df.png,Cleavers,0.7565865516662598
1e095a7e1.png,Charlock,0.7906381487846375
1f290e016.png,Cleavers,0.9999899864196777
1f3f44563.png,Cleavers,0.997760534286499
1f5e5554e.png,Cleavers,0.9813823699951172
1fefb54b7.png,Cleavers,0.937972903251648
205df1df3.png,Cleavers,0.9999969005584717
20817c846.png,Cleavers,0.999969482421875
20e562fd5.png,Cleavers,0.9742410182952881
20ea96bcc.png,Charlock,0.7785194516181946
20f983a71.png,Cleavers,0.9804286360740662
2126dc71b.png,Cleavers,0.9983481168746948
219fd68d5.png,Cleavers,0.9997040629386902
223e4af09.png,Cleavers,0.987464189529419
22e79540f.png,Cleavers,0.9904533624649048
22fbf13d6.png,Cleavers,0.6050936579704285
239bdf640.png,Cleavers,0.9989645481109619
23bc8ec4f.png,Cleavers,0.9999165534973145
23e480e64.png,Cleavers,0.9114131331443787
2406d6c99.png,Cleavers,0.9893892407417297
241e6935a.png,Cleavers,0.9937832355499268
248436078.png,Cleavers,0.9848430156707764
24a058589.png,Cleavers,0.9997389912605286
24c94a6ca.png,Cleavers,0.9992819428443909
24d36c52c.png,Cleavers,0.9987024068832397
24d78df74.png,Charlock,0.9936749339103699
24dbc3b21.png,Cleavers,0.9920253753662109
258b1183c.png,Cleavers,0.9891421794891357
25a4c427e.png,Charlock,0.6899160742759705
25cf6eb73.png,Cleavers,0.9985748529434204
25fa8d109.png,Cleavers,0.7672982811927795
26852751a.png,Cleavers,0.9788058400154114
2693e5c65.png,Cleavers,0.9999650716781616
26e7ae885.png,Cleavers,0.9783132076263428
270b939cf.png,Cleavers,0.9550092220306396
279df95f2.png,Cleavers,0.999405026435852
288564c76.png,Cleavers,0.9969761371612549
29bab7cad.png,Cleavers,0.9998593330383301
29ce426a1.png,Cleavers,0.9999736547470093
29f49cd0b.png,Cleavers,0.99696284532547
2a5064f19.png,Cleavers,0.7635098099708557
2a667e099.png,Cleavers,0.9813366532325745
2b55a2da2.png,Cleavers,0.9859644174575806
2bd74d2da.png,Cleavers,0.995602011680603
2d5058a59.png,Cleavers,0.9994034767150879
2d992d1fb.png,Cleavers,0.6367350220680237
2d9c798f9.png,Charlock,0.9927500486373901
2dd5cfba9.png,Cleavers,0.9997220635414124
2df78338c.png,Cleavers,0.9995390176773071
2e86f1085.png,Cleavers,0.9990947246551514
2ea664465.png,Cleavers,0.9438477158546448
2f0004a7f.png,Cleavers,0.605466902256012
2f246d688.png,Charlock,0.8857504725456238
2ff5cb348.png,Cleavers,0.9995446801185608
30ad31220.png,Cleavers,0.9999544620513916
3185294c8.png,Cleavers,0.9989626407623291
31f3dd81f.png,Charlock,0.5605607628822327
31fcdc161.png,Cleavers,0.9999560117721558
3281183f9.png,Cleavers,0.9971541166305542
32a8c8a1d.png,Cleavers,0.7724863290786743
32b42c120.png,Charlock,0.9902371764183044
32c86784b.png,Cleavers,0.9996840953826904
33317fc2a.png,Cleavers,0.88062983751297
33448fe39.png,Cleavers,0.526060938835144
33748968f.png,Cleavers,0.9435302019119263
338c7e907.png,Cleavers,0.9994231462478638
34dd57ca9.png,Cleavers,0.9144885540008545
3526b05cc.png,Cleavers,0.9998158812522888
35a90f8d0.png,Cleavers,0.9999713897705078
35cf9fa01.png,Cleavers,0.9979895353317261
35ebe165c.png,Cleavers,0.7339774370193481
36839d5e9.png,Cleavers,0.9984317421913147
36d62bf36.png,Cleavers,0.7791228890419006
36ed4f215.png,Cleavers,0.9981344938278198
37297a64c.png,Cleavers,0.9996525049209595
37714071b.png,Cleavers,0.9998119473457336
377283a21.png,Cleavers,0.9999972581863403
37c3108d6.png,Cleavers,0.9971548318862915
37e545a60.png,Cleavers,0.9955400824546814
3827436f3.png,Cleavers,0.988373339176178
38c054379.png,Cleavers,0.9998770952224731
391dcd7fd.png,Cleavers,0.561248779296875
39858776a.png,Cleavers,0.711117148399353
39b740f7e.png,Cleavers,0.8381189107894897
39c8fde99.png,Charlock,0.5950573682785034
39d569be4.png,Cleavers,0.6965777277946472
3a909ead8.png,Charlock,0.8132253885269165
3abb502fb.png,Cleavers,0.8377696871757507
3b73c3b61.png,Cleavers,0.9951076507568359
3bbef3ecb.png,Cleavers,0.9994669556617737
3d38a87bc.png,Cleavers,0.9415006637573242
3d65168c2.png,Cleavers,0.9747439026832581
3d67c434b.png,Charlock,0.9575138092041016
3da774107.png,Cleavers,0.964300811290741
3dd52bd2a.png,Charlock,0.7120458483695984
3e9f41817.png,Cleavers,0.9461526274681091
3ebbe9ca4.png,Cleavers,0.993107795715332
3eda9cbb6.png,Cleavers,0.999941349029541
3edf5e9ef.png,Cleavers,0.9731917381286621
3eebd36c6.png,Cleavers,0.9984810948371887
3efa1f66c.png,Cleavers,0.6040637493133545
3f64c2c1b.png,Cleavers,0.5985782742500305
3f826b318.png,Charlock,0.7059399485588074
3f92d8039.png,Charlock,0.8777315616607666
3fbd0fc6a.png,Cleavers,0.9981377124786377
3fbf1a417.png,Cleavers,0.9853953123092651
4049a6ea6.png,Cleavers,0.9737083911895752
406162ef9.png,Cleavers,0.9986832737922668
406ecb5c5.png,Cleavers,0.9833294153213501
410e6f702.png,Charlock,0.5647188425064087
41e07778c.png,Cleavers,0.7657120823860168
41f1c3cdb.png,Cleavers,0.8193297982215881
4287d810c.png,Cleavers,0.9999090433120728
429211ee6.png,Cleavers,0.9706595540046692
42e7ed442.png,Cleavers,0.9804203510284424
4392d93cf.png,Cleavers,0.9537219405174255
43ede9de9.png,Cleavers,0.9999986886978149
444473900.png,Cleavers,0.9443976879119873
446f7da01.png,Cleavers,0.9027999043464661
44e8b8833.png,Charlock,0.9986237287521362
456d507c0.png,Cleavers,0.8418698906898499
466bb6d3b.png,Cleavers,0.9989995360374451
46c14fde2.png,Charlock,0.676149308681488
47b7d8e17.png,Cleavers,0.7472423315048218
47f9e5d91.png,Cleavers,0.8666906952857971
48231e475.png,Cleavers,0.9998966455459595
4823c3ffa.png,Cleavers,0.997247040271759
486e59179.png,Cleavers,0.9776925444602966
48d97c645.png,Charlock,0.9802706241607666
48ef6a2ff.png,Cleavers,0.8067672848701477
490c4f9c8.png,Cleavers,0.8261527419090271
4a337a4a9.png,Cleavers,0.9012588262557983
4ac29bbf0.png,Cleavers,0.9929516911506653
4b032563b.png,Cleavers,0.9999840259552002
4b155fb07.png,Cleavers,0.9999821186065674
4bbf1f6ea.png,Cleavers,0.9983989596366882
4bbfd1e05.png,Cleavers,0.8625640869140625
4bcdaa5e2.png,Cleavers,0.9984607696533203
4c5ab9b68.png,Cleavers,0.919546902179718
4c7838de4.png,Cleavers,0.9980352520942688
4c8005bbc.png,Cleavers,0.7324758172035217
4e1190d78.png,Cleavers,0.8008224368095398
4e18ab737.png,Cleavers,0.5147405862808228
4e69d100a.png,Charlock,0.9854737520217896
4e9d3765f.png,Cleavers,0.9888209104537964
4ea7493d5.png,Cleavers,0.9996090531349182
4f44ca525.png,Cleavers,0.922813355922699
4f83143e1.png,Cleavers,0.9989043474197388
502dff972.png,Charlock,0.8580811023712158
506347cfe.png,Cleavers,0.9999607801437378
50de8a115.png,Cleavers,0.9381024837493896
521b27a17.png,Cleavers,0.838748574256897
523e5505c.png,Cleavers,0.9993358254432678
5296835a0.png,Charlock,0.9996603727340698
52a87abe5.png,Cleavers,0.9322530627250671
52dc7a4d6.png,Cleavers,0.9959903359413147
5315c2dca.png,Cleavers,0.8395652174949646
534e74d83.png,Cleavers,0.9999834299087524
539961189.png,Cleavers,0.9992014765739441
53ceb4657.png,Cleavers,0.9972611665725708
53e6e9000.png,Charlock,0.8252442479133606
54b3afd58.png,Charlock,0.5301477909088135
54c8bb900.png,Cleavers,0.9999830722808838
550a8b7e6.png,Cleavers,0.5453736782073975
55251925f.png,Cleavers,0.99552321434021
558aa7deb.png,Cleavers,0.7376390099525452
55920f07f.png,Cleavers,0.9937756061553955
55a852f40.png,Cleavers,0.9999749660491943
55fed435f.png,Cleavers,0.9995326995849609
56112b92c.png,Charlock,0.9585123658180237
56a01b835.png,Cleavers,0.859775722026825
5779fe8b4.png,Cleavers,0.991036057472229
5817b766d.png,Cleavers,0.9999262094497681
5883b423d.png,Cleavers,0.9999731779098511
589e643b8.png,Charlock,0.5602269172668457
590f5aea6.png,Cleavers,0.9991201758384705
592473c83.png,Cleavers,0.7310689091682434
592cc5b89.png,Cleavers,0.7182124257087708
59358cd44.png,Charlock,0.9879514575004578
593896f83.png,Charlock,0.5063378810882568
599691cd9.png,Cleavers,0.8757250308990479
599c82eea.png,Cleavers,0.9997579455375671
59b2c6f2b.png,Cleavers,0.9998874664306641
59c6a9f95.png,Cleavers,0.9994268417358398
59e1cea8d.png,Cleavers,0.9947037100791931
59f62ad1d.png,Cleavers,0.9621816873550415
5a38ac566.png,Cleavers,0.9901935458183289
5a6bf96f6.png,Cleavers,0.9653635025024414
5af1d74ee.png,Cleavers,0.9974944591522217
5b3000b9a.png,Cleavers,0.9999432563781738
5b3beec58.png,Cleavers,0.5983887910842896
5b63dcc21.png,Cleavers,0.9945038557052612
5bbc0a255.png,Cleavers,0.9032144546508789
5bc6595f6.png,Cleavers,0.9999990463256836
5bd71f445.png,Cleavers,0.9997562766075134
5bdcfa329.png,Charlock,0.6038021445274353
5c3cd7ea2.png,Cleavers,0.999993085861206
5ca0205f9.png,Cleavers,0.9999719858169556
5ca2687a4.png,Cleavers,0.9999151229858398
5dcad9a53.png,Charlock,0.9940317273139954
5e6a237f2.png,Cleavers,0.998708963394165
5eb9c26a6.png,Charlock,0.905579149723053
5ee9d0a5b.png,Charlock,0.8359975218772888
5f04aed97.png,Charlock,0.9995416402816772
6049234e6.png,Cleavers,0.9983775615692139
604dd663f.png,Cleavers,0.9962000250816345
606647f64.png,Cleavers,0.9999834299087524
60ee66ddd.png,Cleavers,0.9657093286514282
60f0bc617.png,Charlock,0.9398868680000305
60fea2ef6.png,Cleavers,0.9819984436035156
615d2b0a9.png,Cleavers,0.9994264841079712
618de3d7a.png,Cleavers,0.9997232556343079
61b044411.png,Cleavers,0.9840998649597168
61dd2cdc5.png,Cleavers,0.8906999826431274
632156793.png,Cleavers,0.9988665580749512
63c07d340.png,Cleavers,0.9988248944282532
647689543.png,Cleavers,0.9513670802116394
64fe8beb9.png,Cleavers,0.9993159770965576
653193c1a.png,Cleavers,0.7455635070800781
65489944f.png,Cleavers,0.9997469782829285
659412b1a.png,Cleavers,0.8396841883659363
65d08b894.png,Cleavers,0.9847049713134766
65e262a6d.png,Cleavers,0.9998335838317871
65e97117e.png,Cleavers,0.8270409107208252
664194d19.png,Charlock,0.7410215139389038
6680836dd.png,Cleavers,0.8121657967567444
668c1007c.png,Cleavers,0.9998747110366821
66ab0e8d0.png,Cleavers,0.9998866319656372
675ec1b0b.png,Charlock,0.945112407207489
67ce3eaa6.png,Charlock,0.8518856167793274
67e185673.png,Charlock,0.999714195728302
686dc7ec8.png,Charlock,0.8513848185539246
6908fb540.png,Cleavers,0.9999725818634033
6982a9d30.png,Charlock,0.9841512441635132
699d3c707.png,Cleavers,0.9970366954803467
69d1669f8.png,Cleavers,0.9444329142570496
6a41bf95b.png,Cleavers,0.9999516010284424
6a47821f9.png,Cleavers,0.5879811644554138
6b721f68e.png,Cleavers,0.5624004006385803
6b9d6f8c9.png,Cleavers,0.6635174751281738
6ba4ef411.png,Cleavers,0.9947386384010315
6bce55e05.png,Cleavers,0.9814631938934326
6be169e41.png,Cleavers,0.996889054775238
6c874918c.png,Cleavers,0.7573152780532837
6d6eb3830.png,Cleavers,0.9479537010192871
6da892be6.png,Cleavers,0.7881783246994019
6db684fff.png,Cleavers,0.9999803304672241
6dd095129.png,Cleavers,0.9989812970161438
6df8e31ea.png,Cleavers,0.9993483424186707
6edb96d45.png,Cleavers,0.9585085511207581
6edc76e7c.png,Cleavers,0.8982641100883484
711b46fba.png,Cleavers,0.9935211539268494
71334c634.png,Cleavers,0.9999659061431885
71b232519.png,Charlock,0.8856901526451111
71e73a8a0.png,Cleavers,0.9962790608406067
71f5323c5.png,Charlock,0.8317533731460571
721b2c47a.png,Cleavers,0.641543447971344
721be0a4a.png,Cleavers,0.9187508821487427
728eabae1.png,Cleavers,0.999457061290741
73260a4ee.png,Cleavers,0.9987834095954895
74068643d.png,Cleavers,0.8197942972183228
74d810f87.png,Charlock,0.5860653519630432
74fd477eb.png,Cleavers,0.9995118379592896
7506c0c02.png,Cleavers,0.9999866485595703
752101fdf.png,Charlock,0.9777446389198303
754b1adf8.png,Charlock,0.9781807065010071
756dd5070.png,Cleavers,0.9997851252555847
75cb95e91.png,Cleavers,0.9999932050704956
7615e52d3.png,Cleavers,0.9683732390403748
76555b064.png,Cleavers,0.7861446738243103
7691014a1.png,Cleavers,0.9963913559913635
7696badea.png,Cleavers,0.7359006404876709
76dbd1054.png,Cleavers,0.9970591068267822
770a265f5.png,Charlock,0.8571563959121704
77ccb8b2a.png,Charlock,0.9864767789840698
780bd2a2c.png,Cleavers,0.7304173707962036
780defa2e.png,Cleavers,0.9975749850273132
785a73ab8.png,Cleavers,0.99973064661026
78750e0ff.png,Cleavers,0.9999946355819702
78b1bf91a.png,Cleavers,0.8205865025520325
78c5fba1d.png,Cleavers,0.999984622001648
79d93bc96.png,Cleavers,0.9911016225814819
79dafec17.png,Charlock,0.7851332426071167
79e5ea8fa.png,Cleavers,0.901563286781311
79fba50db.png,Cleavers,0.9993016719818115
7a38416be.png,Cleavers,0.9999302625656128
7b21ba6ba.png,Cleavers,0.9999873638153076
7b52585da.png,Cleavers,0.996038556098938
7beb2766f.png,Cleavers,0.9999935626983643
7c85b0265.png,Cleavers,0.6219943761825562
7cabd68cc.png,Cleavers,0.8254669308662415
7d22abf91.png,Cleavers,0.9994136095046997
7d3045fc3.png,Cleavers,0.9994811415672302
7d4cd07ad.png,Cleavers,0.9921398758888245
7e9cf1c46.png,Cleavers,0.9984525442123413
7f31c7f42.png,Charlock,0.5517639517784119
7f46a71db.png,Cleavers,0.9999904632568359
7f9e9565d.png,Cleavers,0.999453604221344
7fdb7202d.png,Cleavers,0.9998983144760132
800a8c17e.png,Cleavers,0.8894557356834412
808578ed5.png,Cleavers,0.9996121525764465
808cf55c6.png,Cleavers,0.9979395270347595
809eb0b82.png,Cleavers,0.9720868468284607
80e299ae9.png,Cleavers,0.9967369437217712
8104422bb.png,Cleavers,0.9994211196899414
8170d33c1.png,Cleavers,0.9999958276748657
824f5d4e5.png,Cleavers,0.9846041798591614
827279bad.png,Cleavers,0.9997305274009705
82b5f4d33.png,Cleavers,0.9991472959518433
8301b0547.png,Cleavers,0.9995993971824646
8303b27ed.png,Cleavers,0.8492498397827148
8311740de.png,Cleavers,0.9965308308601379
835dc5447.png,Charlock,0.9894333481788635
837ac0270.png,Cleavers,0.9999252557754517
8455169fe.png,Cleavers,0.5650524497032166
851c90831.png,Cleavers,0.9001358151435852
85431c075.png,Cleavers,0.947479248046875
855955aaf.png,Charlock,0.6574417948722839
856f2910a.png,Cleavers,0.5753339529037476
8585f9718.png,Cleavers,0.6568020582199097
862b8e7a0.png,Cleavers,0.9845662713050842
86676d627.png,Cleavers,0.9179181456565857
866be78b0.png,Cleavers,0.9998635053634644
86c309150.png,Cleavers,0.9557529091835022
86f08e6d1.png,Cleavers,0.9630154371261597
87608f7aa.png,Cleavers,0.9957892298698425
87f627bf9.png,Cleavers,0.9997963309288025
8874bba69.png,Charlock,0.9262987971305847
88ac6df54.png,Cleavers,0.9772049784660339
88d8a4508.png,Cleavers,0.8502523899078369
8916793ce.png,Cleavers,0.9051816463470459
892e9d6c6.png,Cleavers,0.9997286200523376
897e5a8de.png,Cleavers,0.6866308450698853
8a30b2de3.png,Cleavers,0.9939087629318237
8a32d0bfa.png,Charlock,0.9908083081245422
8a4d3a1b1.png,Cleavers,0.8177071213722229
8a8d6c712.png,Charlock,0.5088281631469727
8ab8a958b.png,Cleavers,0.9982060194015503
8b043093d.png,Charlock,0.9507988095283508
8b27bfd2b.png,Charlock,0.995566189289093
8b9144917.png,Cleavers,0.8295097351074219
8bc0261c9.png,Cleavers,0.9724963903427124
8c98a6e9b.png,Cleavers,0.8541272282600403
8c9953903.png,Cleavers,0.995688259601593
8ca6140ca.png,Cleavers,0.9092134833335876
8cf2e3e6c.png,Charlock,0.9608215093612671
8cf909eb3.png,Cleavers,0.9895296692848206
8cfd98117.png,Cleavers,0.9999830722808838
8d6991365.png,Cleavers,0.7981225252151489
8d6acbe9b.png,Charlock,0.7079799175262451
8db450ce3.png,Cleavers,0.9868307113647461
8dbb8e1b9.png,Cleavers,0.994195818901062
8e29abce1.png,Cleavers,0.9971575736999512
8e2e5604e.png,Cleavers,0.9926605224609375
8e3ed0a25.png,Charlock,0.5460463166236877
8e4eaeec0.png,Cleavers,0.8059099912643433
8e6ec1ca6.png,Charlock,0.9971725940704346
8ece6efec.png,Cleavers,0.9999996423721313
8f523520c.png,Cleavers,0.9923543930053711
8faadb6a8.png,Cleavers,0.7952958941459656
90b595f12.png,Cleavers,0.9999421834945679
90d119d25.png,Cleavers,0.9999493360519409
91e469b4a.png,Cleavers,0.9998176693916321
92292055d.png,Cleavers,0.9998577833175659
93079d970.png,Cleavers,0.9762166142463684
9326bda1b.png,Charlock,0.7400092482566833
93d76fd5d.png,Cleavers,0.9848345518112183
948cdb277.png,Cleavers,0.9910191893577576
9516e56c4.png,Charlock,0.6580305695533752
953496deb.png,Cleavers,0.9895558953285217
958bb9e96.png,Cleavers,0.9935089349746704
963544aa0.png,Cleavers,0.8635625839233398
9643fc5f4.png,Cleavers,0.9981295466423035
966ae5ad9.png,Cleavers,0.7563345432281494
969a851be.png,Cleavers,0.9999369382858276
96ecad7a1.png,Charlock,0.9374328255653381
96f14d90c.png,Cleavers,0.9873743653297424
974959ec1.png,Cleavers,0.9578400254249573
976e4e079.png,Cleavers,0.980131208896637
97844bfd5.png,Cleavers,0.9997619986534119
97b2f0a10.png,Cleavers,0.8227148652076721
98062cd87.png,Cleavers,0.9737483263015747
98d819587.png,Cleavers,0.9903912544250488
98da6ef4e.png,Cleavers,0.9998548030853271
99036c51d.png,Cleavers,0.6818466782569885
99569b224.png,Cleavers,0.6748873591423035
995c7ab1e.png,Cleavers,0.9795364141464233
9a3f20121.png,Cleavers,0.6042137742042542
9aa5587fe.png,Cleavers,0.7976672649383545
9b4800b42.png,Cleavers,0.9999828338623047
9b9911f20.png,Cleavers,0.9940190315246582
9baf94467.png,Cleavers,0.9833285808563232
9c0c5b731.png,Cleavers,0.9392812252044678
9c32a797e.png,Cleavers,0.8804094195365906
9c777333d.png,Cleavers,0.9945598244667053
9c8b08a24.png,Cleavers,0.8778125047683716
9cce7328c.png,Cleavers,0.9138519763946533
9d3cb4745.png,Cleavers,0.8029555678367615
9d79a1f0c.png,Charlock,0.8998479843139648
9df3275da.png,Charlock,0.9989597797393799
9fab816f2.png,Cleavers,0.8417143225669861
a006a475c.png,Cleavers,0.9859446287155151
a060c1cf8.png,Cleavers,0.9987418055534363
a0b393945.png,Charlock,0.9422509074211121
a0f37c726.png,Charlock,0.999962568283081
a169b71e7.png,Cleavers,0.9940078258514404
a19c3faca.png,Cleavers,0.9913045167922974
a1da8be3c.png,Cleavers,0.9987949132919312
a1e0a6c02.png,Cleavers,0.9903751015663147
a254d71f6.png,Cleavers,0.9981682300567627
a276c65f7.png,Charlock,0.6572418808937073
a2b703e21.png,Charlock,0.8435444235801697
a2c89c367.png,Cleavers,0.9996034502983093
a2d25b4f3.png,Charlock,0.789572536945343
a35fd6fbb.png,Cleavers,0.9999428987503052
a38b8a581.png,Charlock,0.9455882906913757
a3b375b34.png,Cleavers,0.9924890995025635
a3d0031fd.png,Cleavers,0.5213658809661865
a4b61a4ea.png,Cleavers,0.903924286365509
a544fc46d.png,Cleavers,0.999213457107544
a55d26a4c.png,Charlock,0.6789665818214417
a5db42f7d.png,Cleavers,0.9994372725486755
a74bf916d.png,Cleavers,0.94637131690979
a74d475c2.png,Cleavers,0.9985219836235046
a7bd7cadb.png,Cleavers,0.9948746562004089
a800caead.png,Cleavers,0.9209522008895874
a83820a2c.png,Cleavers,0.9912642240524292
a8388a37f.png,Cleavers,0.9859429597854614
a85b48a95.png,Cleavers,0.9999475479125977
a85fc8c9a.png,Charlock,0.9994184970855713
a890ac088.png,Cleavers,0.999987006187439
a8b431a3e.png,Cleavers,0.9999567270278931
a8c8a1db0.png,Cleavers,0.6641743183135986
a8da9c08d.png,Cleavers,0.9999995231628418
a8de7c1b7.png,Charlock,0.728251039981842
a935ca110.png,Cleavers,0.7390162944793701
a93f940d6.png,Cleavers,0.9998563528060913
a9d2eab61.png,Cleavers,0.7011780142784119
aa7d098d1.png,Cleavers,0.999072790145874
aad8375e0.png,Cleavers,0.9983381032943726
aaf4da98f.png,Cleavers,0.9948141574859619
ab0f67743.png,Cleavers,0.7978515028953552
ab35453cb.png,Cleavers,0.9768221974372864
abc331628.png,Cleavers,0.5711284279823303
abf8b0772.png,Cleavers,0.9992432594299316
ac3193f78.png,Cleavers,0.9999539852142334
ac75d3326.png,Cleavers,0.8022364377975464
acdb75e00.png,Cleavers,0.5613762140274048
ace8761dd.png,Cleavers,0.9999675750732422
ad12382d4.png,Cleavers,0.9535330533981323
adb7a032c.png,Cleavers,0.9754626154899597
ae90f2827.png,Cleavers,0.9999855756759644
aecfaed64.png,Charlock,0.624289870262146
aee6fa3df.png,Cleavers,0.6015679240226746
af45e222a.png,Cleavers,0.9999918937683105
afa446484.png,Charlock,0.8152813911437988
afcf6abd5.png,Charlock,0.9894920587539673
b026bf8ca.png,Cleavers,0.96319180727005
b03397525.png,Cleavers,0.9289137721061707
b0acaff4a.png,Cleavers,0.9085820913314819
b130a0632.png,Cleavers,0.9947910308837891
b145ba9d4.png,Cleavers,0.9988130331039429
b1cd2a91e.png,Cleavers,0.9958145022392273
b215531dd.png,Cleavers,0.9818300008773804
b2706e2b3.png,Cleavers,0.9825232028961182
b29339405.png,Cleavers,0.9202541708946228
b30ab4659.png,Cleavers,0.9951272010803223
b31292706.png,Cleavers,0.9999533891677856
b341d0aab.png,Cleavers,0.9999159574508667
b39c71707.png,Cleavers,0.9998830556869507
b3d6fdb80.png,Cleavers,0.9975525736808777
b3e08b037.png,Cleavers,0.9846291542053223
b47691c08.png,Cleavers,0.9999978542327881
b4c3df835.png,Cleavers,0.9999970197677612
b4f7c9214.png,Cleavers,0.6094129085540771
b573b7a56.png,Cleavers,0.7061452865600586
b5c7fd009.png,Cleavers,0.8984659314155579
b62dca166.png,Cleavers,0.7760960459709167
b687160f5.png,Charlock,0.9927323460578918
b6a3f7876.png,Charlock,0.5059864521026611
b6f3d8b5d.png,Cleavers,0.9981094598770142
b7192c70f.png,Cleavers,0.9074476957321167
b7a7f6390.png,Cleavers,0.670489490032196
b7ad92859.png,Cleavers,0.6704594492912292
b828443ff.png,Cleavers,0.9999935626983643
b9062c1c8.png,Cleavers,0.9328657984733582
b944a49ca.png,Charlock,0.5251341462135315
b98327bf4.png,Cleavers,0.9955769777297974
ba3ce6b3e.png,Cleavers,0.9945476651191711
bb1c84bbc.png,Charlock,0.8489322066307068
bb1d1bfd3.png,Cleavers,0.995169460773468
bb20fce02.png,Cleavers,0.9999146461486816
bb64660b7.png,Cleavers,0.9997624754905701
bb7621cb3.png,Cleavers,0.8969026803970337
bd72d4d8a.png,Cleavers,0.9999977350234985
bd789d151.png,Cleavers,0.9988852143287659
bdde957ec.png,Cleavers,0.999987006187439
be2499cf4.png,Cleavers,0.980121374130249
be341dbdc.png,Cleavers,0.8486893177032471
bea23d9f8.png,Cleavers,0.999862790107727
bebcaab66.png,Cleavers,0.9996883869171143
beebe5f4e.png,Cleavers,0.9999556541442871
bf3924a57.png,Cleavers,0.9998160004615784
bf66b9cd2.png,Cleavers,0.9953794479370117
bfab3e3d0.png,Cleavers,0.9959216117858887
bffc08672.png,Cleavers,0.9972800016403198
c0461776c.png,Cleavers,0.9996947050094604
c069fc3fa.png,Cleavers,0.9658723473548889
c06e7c748.png,Cleavers,0.9995806813240051
c0bc3997b.png,Cleavers,0.9996289014816284
c0d9e170b.png,Charlock,0.7927858233451843
c0f5d9ac8.png,Charlock,0.9841485023498535
c10ccbd82.png,Cleavers,0.9999504089355469
c10db7ae2.png,Cleavers,0.9998492002487183
c1ecff98b.png,Cleavers,0.9541499614715576
c26ccf73c.png,Cleavers,0.9827640056610107
c2de6020a.png,Charlock,0.9779024124145508
c35efa095.png,Cleavers,0.9999502897262573
c4ed8ed38.png,Cleavers,0.9998251795768738
c50335991.png,Charlock,0.8042442798614502
c5078bac5.png,Cleavers,0.6920771598815918
c5e419015.png,Cleavers,0.9999958276748657
c5e88cd42.png,Cleavers,0.99909508228302
c60e91e07.png,Cleavers,0.8595498204231262
c63da993b.png,Cleavers,0.9986371397972107
c64370a72.png,Cleavers,0.9998666048049927
c6b76307d.png,Cleavers,0.9817349314689636
c6c8d4ba0.png,Cleavers,0.7914895415306091
c7051c902.png,Cleavers,0.7693220376968384
c74c5b7fc.png,Cleavers,0.9950456619262695
c75a82234.png,Cleavers,0.999981164932251
c7ae30f3a.png,Cleavers,0.999985933303833
c7b07431e.png,Cleavers,0.9998948574066162
c7eb96871.png,Cleavers,0.9877590537071228
c832e4302.png,Cleavers,0.9976058006286621
c85ef220d.png,Cleavers,0.9999309778213501
c88ebfb47.png,Charlock,0.945045530796051
c8f50f0c3.png,Cleavers,0.8421951532363892
caa2fbd79.png,Cleavers,0.999636173248291
cadab6616.png,Cleavers,0.9805669188499451
cae684f8f.png,Cleavers,0.9999884366989136
cb496f36e.png,Charlock,0.5338772535324097
cb76a7766.png,Cleavers,0.8784117102622986
cbba27d89.png,Cleavers,0.9999475479125977
cbe761896.png,Cleavers,0.9997202754020691
cc3d2a59a.png,Cleavers,0.9953919649124146
cc74feadc.png,Cleavers,0.9854205250740051
cd5f0db1c.png,Charlock,0.9643914103507996
cd6adba97.png,Charlock,0.9366351366043091
ce15eee52.png,Cleavers,0.9986162185668945
ce3d280eb.png,Cleavers,0.8047345876693726
ce42adffb.png,Charlock,0.6150891780853271
cec5bf198.png,Cleavers,0.9999340772628784
cf3a8b2fd.png,Cleavers,0.9658083915710449
cf46d09c5.png,Cleavers,0.9423754811286926
cf90fc52d.png,Cleavers,0.9910445213317871
cfb18d262.png,Cleavers,0.9999336004257202
cfd8165e9.png,Cleavers,0.99992835521698
d0152bd7c.png,Cleavers,0.7619258165359497
d01873fdd.png,Charlock,0.6965864896774292
d09275360.png,Cleavers,0.9863417744636536
d09d24c58.png,Charlock,0.5247357487678528
d0cdc768f.png,Cleavers,0.8866111040115356
d102e1a15.png,Cleavers,0.9966358542442322
d14aa43f3.png,Charlock,0.93067866563797
d17f48d3b.png,Cleavers,0.9998500347137451
d2f0f326e.png,Cleavers,0.9878455996513367
d2f422ccb.png,Cleavers,0.9998449087142944
d2fd9df40.png,Charlock,0.5394048690795898
d3331e071.png,Cleavers,0.9782952666282654
d350a25fa.png,Cleavers,0.9999969005584717
d41d87796.png,Cleavers,0.9999666213989258
d488a4fe1.png,Cleavers,0.8910899758338928
d515398fd.png,Cleavers,0.9955436587333679
d563be369.png,Cleavers,0.992790699005127
d5f7dd60a.png,Cleavers,0.9998027682304382
d668409ff.png,Cleavers,0.759962260723114
d689256be.png,Cleavers,0.874527096748352
d6c8c3c48.png,Charlock,0.5319073796272278
d6d31dcbe.png,Cleavers,0.999956488609314
d6d80a321.png,Cleavers,0.9998189806938171
d7017f701.png,Cleavers,0.980438232421875
d84d37a61.png,Cleavers,0.9999464750289917
d89db156f.png,Cleavers,0.9078906178474426
d8f4923f8.png,Cleavers,0.9910365343093872
d93c7ab6d.png,Cleavers,0.9849292635917664
d9c50616e.png,Cleavers,0.9781071543693542
da231c97f.png,Cleavers,0.9998321533203125
da4ed3a28.png,Cleavers,0.9970688223838806
da5255450.png,Cleavers,0.9714885950088501
da713c465.png,Cleavers,0.9344196915626526
da9ef7858.png,Cleavers,0.9999992847442627
dabe3e5be.png,Cleavers,0.7210941910743713
dabea05f4.png,Cleavers,0.9970807433128357
dc4cd56a3.png,Cleavers,0.8421788811683655
dc55449b2.png,Cleavers,0.693018913269043
dcd7ff249.png,Cleavers,0.9997978806495667
dce2f6612.png,Cleavers,0.9999605417251587
dd5ec63d9.png,Cleavers,0.9996421337127686
dd9f36df7.png,Charlock,0.9965742826461792
de0b79659.png,Cleavers,0.901542603969574
df11d56a7.png,Cleavers,0.9478027820587158
df521c0c0.png,Cleavers,0.5455523133277893
df7cb5f87.png,Cleavers,0.9763595461845398
dfb1d9012.png,Cleavers,0.5579713582992554
e0ec5b6a1.png,Cleavers,0.9997394680976868
e14afa235.png,Cleavers,0.8769994974136353
e15472085.png,Cleavers,0.999881386756897
e15fce4f2.png,Cleavers,0.9998620748519897
e1809cef2.png,Cleavers,0.9847197532653809
e19673dc9.png,Cleavers,0.9999995231628418
e19ad6ac9.png,Cleavers,0.590134859085083
e1a0e3202.png,Cleavers,0.5544760227203369
e1abb4ff9.png,Cleavers,0.9952303171157837
e3f50adfc.png,Cleavers,0.9266161918640137
e471f1d3a.png,Cleavers,0.9994208812713623
e478c452c.png,Cleavers,0.9456499218940735
e4a76885b.png,Cleavers,0.982559084892273
e4d5ec761.png,Cleavers,0.584551215171814
e5064f6be.png,Cleavers,0.5056601762771606
e52493d0b.png,Cleavers,0.825426459312439
e5297b675.png,Cleavers,0.5052358508110046
e5368474f.png,Cleavers,0.9987577199935913
e5881dd33.png,Cleavers,0.9843258261680603
e5e3dccff.png,Cleavers,0.848120391368866
e6f1211a2.png,Cleavers,0.9636054039001465
e7077322d.png,Cleavers,0.9999899864196777
e721c6ac8.png,Cleavers,0.615600049495697
e73e308be.png,Cleavers,0.7898152470588684
e783f5a4f.png,Cleavers,0.9998600482940674
e80a259c5.png,Cleavers,0.964809000492096
e82017baa.png,Cleavers,0.9410678148269653
e84464f5a.png,Cleavers,0.9939457774162292
e88bf0db9.png,Charlock,0.9991638660430908
e901b0f28.png,Cleavers,0.9404641389846802
e921021a8.png,Cleavers,0.9732540249824524
e96e57a90.png,Cleavers,0.9942303895950317
e98e5d1d5.png,Charlock,0.7211212515830994
e9cd91682.png,Cleavers,0.999997615814209
e9d48d664.png,Cleavers,0.6762672066688538
eaf0815e2.png,Charlock,0.7093880772590637
ec08a5d56.png,Charlock,0.7523291110992432
ede6b84b4.png,Cleavers,0.9984428286552429
edfdb4aeb.png,Cleavers,0.9999182224273682
eec1079a1.png,Cleavers,0.7841772437095642
eef131644.png,Charlock,0.8869001865386963
ef02b4ee7.png,Cleavers,0.9360179901123047
ef3e232ad.png,Cleavers,0.9993820190429688
ef65533d5.png,Cleavers,0.6674590110778809
ef74dbcad.png,Cleavers,0.9991447925567627
ef7a5651d.png,Cleavers,0.999981164932251
ef9676433.png,Cleavers,0.9977673292160034
efe19dc32.png,Cleavers,0.9891613125801086
f0ffa00bd.png,Cleavers,0.9999891519546509
f1e87cba7.png,Cleavers,0.8068343997001648
f1f7c833f.png,Cleavers,0.9975480437278748
f23faf9c1.png,Cleavers,0.7189108729362488
f25996db8.png,Charlock,0.5291067957878113
f2dc546ca.png,Cleavers,0.9973810315132141
f33e9d918.png,Cleavers,0.9886400699615479
f351ce097.png,Cleavers,0.9947446584701538
f3fcfff1b.png,Cleavers,0.9998843669891357
f4021df6c.png,Cleavers,0.9998952150344849
f4234cf4f.png,Cleavers,0.9864437580108643
f445fe6fb.png,Cleavers,0.9997721314430237
f48916a8c.png,Cleavers,0.9999778270721436
f4ad9d950.png,Cleavers,0.9841681122779846
f4caf74f9.png,Cleavers,0.9998770952224731
f4e7733d4.png,Cleavers,0.7631438374519348
f593c9cf0.png,Cleavers,0.999930739402771
f66ae4070.png,Cleavers,0.9998137354850769
f6d250856.png,Cleavers,0.9372649788856506
f8318faf1.png,Cleavers,0.9999632835388184
f85ed9b6d.png,Cleavers,0.9996050000190735
f9b6bfb00.png,Cleavers,0.9997417330741882
f9ea23fb5.png,Cleavers,0.9306725859642029
f9f35cbd4.png,Cleavers,0.9961875081062317
fa5fd1384.png,Cleavers,0.9686903953552246
fa9f3a8f9.png,Cleavers,0.9812135100364685
fadc6adbc.png,Cleavers,0.9958966970443726
fb022edf9.png,Cleavers,0.9616959095001221
fba8fc78a.png,Cleavers,0.9858317375183105
fbf88b6be.png,Cleavers,0.9998199343681335
fc3e58836.png,Cleavers,0.9998114705085754
fc6f686fb.png,Cleavers,0.9839575290679932
fd253a74e.png,Cleavers,0.9948291182518005
fd87b36ae.png,Cleavers,0.8602851629257202
fd925f542.png,Cleavers,0.967143177986145
fda0b5c38.png,Cleavers,0.9536097049713135
fda39e16f.png,Cleavers,0.546390175819397
fdea6b119.png,Charlock,0.5713576674461365
fe29629fb.png,Cleavers,0.9766518473625183
fe9e87b78.png,Cleavers,0.9998887777328491
fea1d13d6.png,Charlock,0.714503824710846
fea355851.png,Cleavers,0.7102786302566528
fea3da57c.png,Cleavers,0.978188157081604
fef2ade8c.png,Cleavers,0.9999024868011475
ff65bc002.png,Cleavers,0.9975360631942749
ffc6f8527.png,Charlock,0.6569018959999084
