Item,Label,Prob
0021e90e4.png,Small-flowered Cranesbill,1.0
003d61042.png,Fat Hen,1.0
007b3da8b.png,Sugar beet,1.0
0086a6340.png,Common Chickweed,1.0
00c47e980.png,Sugar beet,1.0
00d090cde.png,Loose Silky-bent,0.9234945774078369
00ef713a8.png,Common Chickweed,1.0
01291174f.png,Fat Hen,1.0
026716f9b.png,Loose Silky-bent,0.98723965883255
02cfeb38d.png,Loose Silky-bent,0.9999803304672241
03566743d.png,Fat Hen,1.0
03a2ee656.png,Small-flowered Cranesbill,1.0
03e322a29.png,Sugar beet,0.9999997615814209
03ef36742.png,Scentless Mayweed,0.9999998807907104
043449b0b.png,Sugar beet,0.9999996423721313
0437393b1.png,Fat Hen,1.0
04814f36d.png,Scentless Mayweed,0.9999943971633911
05341a8a6.png,Scentless Mayweed,0.9999759197235107
060450d79.png,Common Chickweed,1.0
060f1dc84.png,Shepherds Purse,0.9998537302017212
0625f063b.png,Common Chickweed,0.9999998807907104
063363305.png,Small-flowered Cranesbill,1.0
06d12f6fa.png,Shepherds Purse,0.9999862909317017
071cb3ece.png,Sugar beet,0.9998127818107605
0751c0bbc.png,Sugar beet,1.0
07e62f903.png,Maize,1.0
085974290.png,Scentless Mayweed,0.9999537467956543
0885e7690.png,Scentless Mayweed,0.999996542930603
089ad62a7.png,Common Chickweed,0.9999979734420776
08d591441.png,Sugar beet,1.0
0911d3dee.png,Common Chickweed,0.9999988079071045
099b961ec.png,Shepherds Purse,0.9843777418136597
0a64e3e6c.png,Black-grass,0.9968656897544861
0ad9e7dfb.png,Sugar beet,0.5795184373855591
0ae6668fa.png,Loose Silky-bent,0.999962568283081
0bf7bfb05.png,Black-grass,0.8241551518440247
0c27cf05f.png,Loose Silky-bent,0.9993352293968201
0c4199daa.png,Loose Silky-bent,0.9999362230300903
0c45ace27.png,Common Chickweed,1.0
0c51bf229.png,Maize,1.0
0c5f6c493.png,Loose Silky-bent,0.995102047920227
0caeda5df.png,Common wheat,0.9999914169311523
0d117d910.png,Common Chickweed,0.9996527433395386
0d31e6602.png,Small-flowered Cranesbill,1.0
0dba99002.png,Sugar beet,0.9999978542327881
0e8492cb1.png,Sugar beet,0.9752300381660461
0ebf8f2f4.png,Maize,1.0
0ee4ad224.png,Scentless Mayweed,0.9976029992103577
0f6cbe5e8.png,Maize,1.0
0fb233ad6.png,Small-flowered Cranesbill,1.0
115f93ecc.png,Loose Silky-bent,0.9999979734420776
116b136de.png,Sugar beet,0.9999997615814209
1191ba346.png,Cleavers,1.0
11d3f68ff.png,Loose Silky-bent,0.9984772801399231
122913909.png,Maize,1.0
12625488b.png,Fat Hen,1.0
126a71ce0.png,Charlock,1.0
1312065a5.png,Small-flowered Cranesbill,1.0
1364b297a.png,Cleavers,1.0
1376f3b63.png,Loose Silky-bent,0.998638927936554
13b9fa92d.png,Sugar beet,1.0
1459e96a0.png,Cleavers,1.0
148bbda66.png,Charlock,1.0
14bb43eee.png,Common wheat,0.9999772310256958
1541bdb2e.png,Maize,1.0
1623fb9e1.png,Fat Hen,1.0
16357b436.png,Loose Silky-bent,0.9999226331710815
16467a950.png,Loose Silky-bent,0.9988232254981995
165681fd9.png,Shepherds Purse,0.9995967745780945
1694a70e4.png,Scentless Mayweed,0.9998854398727417
16fd2e01a.png,Small-flowered Cranesbill,1.0
172f9b10b.png,Common Chickweed,0.9999991655349731
17529c555.png,Scentless Mayweed,0.9999973773956299
1758a1baf.png,Common Chickweed,0.9999998807907104
177d7e2a4.png,Common Chickweed,0.9758588075637817
17a78fb44.png,Common wheat,0.9999945163726807
17d5e5ac4.png,Loose Silky-bent,0.9948063492774963
1821eb11a.png,Scentless Mayweed,0.9999418258666992
187668bde.png,Scentless Mayweed,0.9999991655349731
1926e82fd.png,Loose Silky-bent,0.9997981190681458
19618ad6a.png,Sugar beet,0.9999995231628418
19b51843a.png,Common Chickweed,1.0
19e58cc5e.png,Common Chickweed,1.0
19fdf19fb.png,Common wheat,0.999842643737793
1b490196c.png,Shepherds Purse,0.9999974966049194
1b6a6494d.png,Sugar beet,0.9999997615814209
1be0713da.png,Cleavers,1.0
1bf9b94a6.png,Scentless Mayweed,0.9997313618659973
1c52ea820.png,Fat Hen,1.0
1c680883c.png,Black-grass,0.9815783500671387
1cfd91582.png,Charlock,1.0
1d0cbd819.png,Loose Silky-bent,0.9600343108177185
1d321253f.png,Fat Hen,0.9999998807907104
1d48b7564.png,Loose Silky-bent,0.9991350769996643
1d56351b2.png,Common Chickweed,0.9999996423721313
1dc7c45df.png,Loose Silky-bent,0.9953728318214417
1e095a7e1.png,Small-flowered Cranesbill,0.9999991655349731
1f290e016.png,Scentless Mayweed,0.999985933303833
1f3f44563.png,Maize,1.0
1f5e5554e.png,Small-flowered Cranesbill,0.9992150068283081
1fefb54b7.png,Sugar beet,0.9872924089431763
205df1df3.png,Fat Hen,0.9999998807907104
20817c846.png,Scentless Mayweed,0.9999974966049194
20e562fd5.png,Sugar beet,1.0
20ea96bcc.png,Fat Hen,1.0
20f983a71.png,Fat Hen,1.0
2126dc71b.png,Common Chickweed,0.9999997615814209
219fd68d5.png,Scentless Mayweed,0.9992324113845825
223e4af09.png,Cleavers,0.9999998807907104
22e79540f.png,Cleavers,1.0
22fbf13d6.png,Loose Silky-bent,0.9996517896652222
239bdf640.png,Charlock,1.0
23bc8ec4f.png,Common Chickweed,1.0
23e480e64.png,Shepherds Purse,0.9999464750289917
2406d6c99.png,Shepherds Purse,0.999998927116394
241e6935a.png,Sugar beet,1.0
248436078.png,Cleavers,1.0
24a058589.png,Charlock,1.0
24c94a6ca.png,Sugar beet,1.0
24d36c52c.png,Common Chickweed,1.0
24d78df74.png,Common Chickweed,0.9999982118606567
24dbc3b21.png,Sugar beet,1.0
258b1183c.png,Cleavers,0.9999998807907104
25a4c427e.png,Loose Silky-bent,0.9994558691978455
25cf6eb73.png,Maize,1.0
25fa8d109.png,Common wheat,0.9999904632568359
26852751a.png,Charlock,1.0
2693e5c65.png,Maize,1.0
26e7ae885.png,Fat Hen,1.0
270b939cf.png,Common Chickweed,1.0
279df95f2.png,Sugar beet,1.0
288564c76.png,Sugar beet,1.0
29bab7cad.png,Common Chickweed,0.9997239708900452
29ce426a1.png,Common Chickweed,0.9999949932098389
29f49cd0b.png,Fat Hen,1.0
2a5064f19.png,Common wheat,0.9999912977218628
2a667e099.png,Fat Hen,1.0
2b55a2da2.png,Charlock,1.0
2bd74d2da.png,Loose Silky-bent,0.986077070236206
2d5058a59.png,Common Chickweed,0.9999990463256836
2d992d1fb.png,Loose Silky-bent,0.9999868869781494
2d9c798f9.png,Small-flowered Cranesbill,1.0
2dd5cfba9.png,Shepherds Purse,0.9999984502792358
2df78338c.png,Common Chickweed,0.9999998807907104
2e86f1085.png,Fat Hen,1.0
2ea664465.png,Sugar beet,1.0
2f0004a7f.png,Common wheat,0.9999805688858032
2f246d688.png,Small-flowered Cranesbill,1.0
2ff5cb348.png,Sugar beet,0.9999988079071045
30ad31220.png,Charlock,1.0
3185294c8.png,Scentless Mayweed,0.9999992847442627
31f3dd81f.png,Loose Silky-bent,0.9907037615776062
31fcdc161.png,Maize,1.0
3281183f9.png,Scentless Mayweed,0.9999998807907104
32a8c8a1d.png,Loose Silky-bent,0.9999998807907104
32b42c120.png,Small-flowered Cranesbill,1.0
32c86784b.png,Common Chickweed,0.9999924898147583
33317fc2a.png,Fat Hen,1.0
33448fe39.png,Loose Silky-bent,0.8672272562980652
33748968f.png,Cleavers,1.0
338c7e907.png,Charlock,1.0
34dd57ca9.png,Loose Silky-bent,0.9998952150344849
3526b05cc.png,Scentless Mayweed,0.9999918937683105
35a90f8d0.png,Scentless Mayweed,0.9999963045120239
35cf9fa01.png,Shepherds Purse,0.9999953508377075
35ebe165c.png,Loose Silky-bent,0.6794992685317993
36839d5e9.png,Scentless Mayweed,0.9999885559082031
36d62bf36.png,Common wheat,0.9999996423721313
36ed4f215.png,Common Chickweed,1.0
37297a64c.png,Common Chickweed,1.0
37714071b.png,Shepherds Purse,0.9998922348022461
377283a21.png,Maize,1.0
37c3108d6.png,Shepherds Purse,0.9999997615814209
37e545a60.png,Common Chickweed,1.0
3827436f3.png,Common Chickweed,1.0
38c054379.png,Small-flowered Cranesbill,1.0
391dcd7fd.png,Black-grass,0.8990247845649719
39858776a.png,Cleavers,1.0
39b740f7e.png,Loose Silky-bent,0.7124119400978088
39c8fde99.png,Loose Silky-bent,0.9936435222625732
39d569be4.png,Loose Silky-bent,0.9999775886535645
3a909ead8.png,Small-flowered Cranesbill,1.0
3abb502fb.png,Loose Silky-bent,0.9999063014984131
3b73c3b61.png,Black-grass,0.8089534640312195
3bbef3ecb.png,Scentless Mayweed,0.9999986886978149
3d38a87bc.png,Loose Silky-bent,0.7707439661026001
3d65168c2.png,Common Chickweed,1.0
3d67c434b.png,Fat Hen,1.0
3da774107.png,Fat Hen,0.9999998807907104
3dd52bd2a.png,Small-flowered Cranesbill,1.0
3e9f41817.png,Loose Silky-bent,0.9957447648048401
3ebbe9ca4.png,Charlock,1.0
3eda9cbb6.png,Scentless Mayweed,0.9999796152114868
3edf5e9ef.png,Sugar beet,0.6489914655685425
3eebd36c6.png,Charlock,1.0
3efa1f66c.png,Loose Silky-bent,0.9938836693763733
3f64c2c1b.png,Common wheat,0.9999970197677612
3f826b318.png,Common Chickweed,0.9999994039535522
3f92d8039.png,Loose Silky-bent,0.9601315855979919
3fbd0fc6a.png,Common Chickweed,0.9999991655349731
3fbf1a417.png,Cleavers,1.0
4049a6ea6.png,Loose Silky-bent,0.9994025230407715
406162ef9.png,Charlock,1.0
406ecb5c5.png,Charlock,1.0
410e6f702.png,Small-flowered Cranesbill,1.0
41e07778c.png,Cleavers,1.0
41f1c3cdb.png,Fat Hen,1.0
4287d810c.png,Common Chickweed,0.9998216032981873
429211ee6.png,Fat Hen,1.0
42e7ed442.png,Shepherds Purse,0.9999984502792358
4392d93cf.png,Fat Hen,1.0
43ede9de9.png,Charlock,1.0
444473900.png,Fat Hen,0.9999988079071045
446f7da01.png,Black-grass,0.8254588842391968
44e8b8833.png,Small-flowered Cranesbill,1.0
456d507c0.png,Cleavers,1.0
466bb6d3b.png,Maize,1.0
46c14fde2.png,Loose Silky-bent,0.8917904496192932
47b7d8e17.png,Small-flowered Cranesbill,1.0
47f9e5d91.png,Common Chickweed,1.0
48231e475.png,Scentless Mayweed,0.9999974966049194
4823c3ffa.png,Loose Silky-bent,0.6119039058685303
486e59179.png,Common Chickweed,0.9999674558639526
48d97c645.png,Small-flowered Cranesbill,1.0
48ef6a2ff.png,Common wheat,0.9999874830245972
490c4f9c8.png,Fat Hen,0.9999992847442627
4a337a4a9.png,Fat Hen,1.0
4ac29bbf0.png,Common Chickweed,1.0
4b032563b.png,Common Chickweed,0.9999986886978149
4b155fb07.png,Maize,1.0
4bbf1f6ea.png,Shepherds Purse,0.9999948740005493
4bbfd1e05.png,Cleavers,1.0
4bcdaa5e2.png,Shepherds Purse,0.8593617081642151
4c5ab9b68.png,Cleavers,1.0
4c7838de4.png,Common Chickweed,0.9999994039535522
4c8005bbc.png,Black-grass,0.6814130544662476
4e1190d78.png,Black-grass,0.9841034412384033
4e18ab737.png,Cleavers,1.0
4e69d100a.png,Small-flowered Cranesbill,1.0
4e9d3765f.png,Charlock,1.0
4ea7493d5.png,Sugar beet,0.9999990463256836
4f44ca525.png,Common Chickweed,1.0
4f83143e1.png,Maize,1.0
502dff972.png,Small-flowered Cranesbill,1.0
506347cfe.png,Cleavers,0.552692174911499
50de8a115.png,Shepherds Purse,0.9992091059684753
521b27a17.png,Loose Silky-bent,0.9999561309814453
523e5505c.png,Fat Hen,0.9999998807907104
5296835a0.png,Small-flowered Cranesbill,1.0
52a87abe5.png,Fat Hen,1.0
52dc7a4d6.png,Common Chickweed,0.9999998807907104
5315c2dca.png,Loose Silky-bent,0.8797053694725037
534e74d83.png,Maize,0.999998927116394
539961189.png,Common Chickweed,1.0
53ceb4657.png,Common Chickweed,1.0
53e6e9000.png,Common wheat,0.9981641173362732
54b3afd58.png,Cleavers,1.0
54c8bb900.png,Charlock,1.0
550a8b7e6.png,Small-flowered Cranesbill,1.0
55251925f.png,Common Chickweed,1.0
558aa7deb.png,Loose Silky-bent,0.9720317721366882
55920f07f.png,Maize,1.0
55a852f40.png,Common Chickweed,0.9999996423721313
55fed435f.png,Maize,0.9999963045120239
56112b92c.png,Small-flowered Cranesbill,1.0
56a01b835.png,Cleavers,0.9999998807907104
5779fe8b4.png,Fat Hen,1.0
5817b766d.png,Shepherds Purse,0.9866818189620972
5883b423d.png,Scentless Mayweed,0.9999954700469971
589e643b8.png,Shepherds Purse,0.9999994039535522
590f5aea6.png,Charlock,1.0
592473c83.png,Loose Silky-bent,0.6163995862007141
592cc5b89.png,Loose Silky-bent,0.9998121857643127
59358cd44.png,Small-flowered Cranesbill,1.0
593896f83.png,Common Chickweed,0.9998947381973267
599691cd9.png,Small-flowered Cranesbill,1.0
599c82eea.png,Scentless Mayweed,0.9999713897705078
59b2c6f2b.png,Common Chickweed,0.9999876022338867
59c6a9f95.png,Fat Hen,0.9999997615814209
59e1cea8d.png,Cleavers,0.9999948740005493
59f62ad1d.png,Loose Silky-bent,0.8680925965309143
5a38ac566.png,Loose Silky-bent,0.997081458568573
5a6bf96f6.png,Maize,1.0
5af1d74ee.png,Sugar beet,0.999998927116394
5b3000b9a.png,Maize,1.0
5b3beec58.png,Loose Silky-bent,0.501293420791626
5b63dcc21.png,Common Chickweed,1.0
5bbc0a255.png,Common Chickweed,0.9469977021217346
5bc6595f6.png,Maize,0.9999998807907104
5bd71f445.png,Common Chickweed,1.0
5bdcfa329.png,Loose Silky-bent,0.9999492168426514
5c3cd7ea2.png,Scentless Mayweed,0.9998822212219238
5ca0205f9.png,Charlock,1.0
5ca2687a4.png,Maize,1.0
5dcad9a53.png,Small-flowered Cranesbill,1.0
5e6a237f2.png,Sugar beet,1.0
5eb9c26a6.png,Loose Silky-bent,0.9962142109870911
5ee9d0a5b.png,Loose Silky-bent,0.9998424053192139
5f04aed97.png,Small-flowered Cranesbill,1.0
6049234e6.png,Fat Hen,0.9999971389770508
604dd663f.png,Shepherds Purse,0.9999829530715942
606647f64.png,Common Chickweed,1.0
60ee66ddd.png,Cleavers,1.0
60f0bc617.png,Small-flowered Cranesbill,1.0
60fea2ef6.png,Sugar beet,0.9999998807907104
615d2b0a9.png,Sugar beet,0.9999997615814209
618de3d7a.png,Charlock,1.0
61b044411.png,Loose Silky-bent,0.9998044371604919
61dd2cdc5.png,Common wheat,0.999980092048645
632156793.png,Cleavers,1.0
63c07d340.png,Sugar beet,0.9999998807907104
647689543.png,Loose Silky-bent,0.9988652467727661
64fe8beb9.png,Scentless Mayweed,0.999961256980896
653193c1a.png,Common wheat,0.9999985694885254
65489944f.png,Shepherds Purse,0.9999794960021973
659412b1a.png,Loose Silky-bent,0.9999747276306152
65d08b894.png,Sugar beet,0.9999768733978271
65e262a6d.png,Charlock,1.0
65e97117e.png,Loose Silky-bent,0.9999909400939941
664194d19.png,Small-flowered Cranesbill,1.0
6680836dd.png,Sugar beet,0.9999996423721313
668c1007c.png,Charlock,1.0
66ab0e8d0.png,Charlock,1.0
675ec1b0b.png,Small-flowered Cranesbill,1.0
67ce3eaa6.png,Small-flowered Cranesbill,1.0
67e185673.png,Small-flowered Cranesbill,1.0
686dc7ec8.png,Loose Silky-bent,0.6302542090415955
6908fb540.png,Sugar beet,1.0
6982a9d30.png,Small-flowered Cranesbill,1.0
699d3c707.png,Sugar beet,1.0
69d1669f8.png,Charlock,1.0
6a41bf95b.png,Scentless Mayweed,0.9999656677246094
6a47821f9.png,Loose Silky-bent,0.8160825371742249
6b721f68e.png,Black-grass,0.988763689994812
6b9d6f8c9.png,Sugar beet,1.0
6ba4ef411.png,Cleavers,0.9999027252197266
6bce55e05.png,Cleavers,1.0
6be169e41.png,Shepherds Purse,0.999998927116394
6c874918c.png,Black-grass,0.9515793919563293
6d6eb3830.png,Shepherds Purse,0.9999995231628418
6da892be6.png,Small-flowered Cranesbill,1.0
6db684fff.png,Scentless Mayweed,0.9999911785125732
6dd095129.png,Common Chickweed,1.0
6df8e31ea.png,Charlock,1.0
6edb96d45.png,Cleavers,1.0
6edc76e7c.png,Fat Hen,1.0
711b46fba.png,Shepherds Purse,0.9999997615814209
71334c634.png,Maize,1.0
71b232519.png,Loose Silky-bent,0.5309266448020935
71e73a8a0.png,Sugar beet,1.0
71f5323c5.png,Loose Silky-bent,0.982453465461731
721b2c47a.png,Fat Hen,1.0
721be0a4a.png,Loose Silky-bent,0.9999910593032837
728eabae1.png,Charlock,1.0
73260a4ee.png,Fat Hen,1.0
74068643d.png,Loose Silky-bent,0.9985937476158142
74d810f87.png,Loose Silky-bent,0.9822260141372681
74fd477eb.png,Common Chickweed,1.0
7506c0c02.png,Scentless Mayweed,0.9999996423721313
752101fdf.png,Small-flowered Cranesbill,1.0
754b1adf8.png,Small-flowered Cranesbill,1.0
756dd5070.png,Common Chickweed,0.9999864101409912
75cb95e91.png,Charlock,1.0
7615e52d3.png,Cleavers,1.0
76555b064.png,Loose Silky-bent,0.999349057674408
7691014a1.png,Charlock,1.0
7696badea.png,Black-grass,0.8353824615478516
76dbd1054.png,Scentless Mayweed,0.9999980926513672
770a265f5.png,Small-flowered Cranesbill,1.0
77ccb8b2a.png,Small-flowered Cranesbill,1.0
780bd2a2c.png,Sugar beet,0.9999977350234985
780defa2e.png,Common Chickweed,0.9999964237213135
785a73ab8.png,Common Chickweed,0.9958219528198242
78750e0ff.png,Charlock,1.0
78b1bf91a.png,Sugar beet,1.0
78c5fba1d.png,Sugar beet,0.9999918937683105
79d93bc96.png,Loose Silky-bent,0.6234073638916016
79dafec17.png,Loose Silky-bent,0.9999986886978149
79e5ea8fa.png,Common wheat,0.9993618130683899
79fba50db.png,Common Chickweed,1.0
7a38416be.png,Charlock,1.0
7b21ba6ba.png,Sugar beet,0.9999982118606567
7b52585da.png,Loose Silky-bent,0.9998279809951782
7beb2766f.png,Scentless Mayweed,1.0
7c85b0265.png,Loose Silky-bent,0.999594509601593
7cabd68cc.png,Loose Silky-bent,0.9652888178825378
7d22abf91.png,Scentless Mayweed,0.9999904632568359
7d3045fc3.png,Sugar beet,1.0
7d4cd07ad.png,Common Chickweed,0.9999996423721313
7e9cf1c46.png,Common Chickweed,0.9984976053237915
7f31c7f42.png,Loose Silky-bent,0.9963365793228149
7f46a71db.png,Sugar beet,1.0
7f9e9565d.png,Scentless Mayweed,1.0
7fdb7202d.png,Scentless Mayweed,0.9999998807907104
800a8c17e.png,Fat Hen,1.0
808578ed5.png,Charlock,1.0
808cf55c6.png,Shepherds Purse,0.9996390342712402
809eb0b82.png,Charlock,0.9549135565757751
80e299ae9.png,Shepherds Purse,0.9999595880508423
8104422bb.png,Common Chickweed,0.9970768690109253
8170d33c1.png,Maize,1.0
824f5d4e5.png,Sugar beet,0.9999992847442627
827279bad.png,Scentless Mayweed,0.9999995231628418
82b5f4d33.png,Shepherds Purse,0.9999212026596069
8301b0547.png,Charlock,1.0
8303b27ed.png,Loose Silky-bent,0.9968734383583069
8311740de.png,Fat Hen,0.9999439716339111
835dc5447.png,Small-flowered Cranesbill,1.0
837ac0270.png,Scentless Mayweed,0.933379054069519
8455169fe.png,Common wheat,0.9999961853027344
851c90831.png,Black-grass,0.9242933988571167
85431c075.png,Loose Silky-bent,0.9999995231628418
855955aaf.png,Small-flowered Cranesbill,1.0
856f2910a.png,Small-flowered Cranesbill,1.0
8585f9718.png,Loose Silky-bent,0.9348743557929993
862b8e7a0.png,Sugar beet,1.0
86676d627.png,Fat Hen,0.9999793767929077
866be78b0.png,Common Chickweed,0.9996055960655212
86c309150.png,Sugar beet,0.9999958276748657
86f08e6d1.png,Fat Hen,0.999795138835907
87608f7aa.png,Charlock,1.0
87f627bf9.png,Common Chickweed,0.9999998807907104
8874bba69.png,Loose Silky-bent,0.9636043906211853
88ac6df54.png,Loose Silky-bent,0.9996082186698914
88d8a4508.png,Maize,0.6381890773773193
8916793ce.png,Small-flowered Cranesbill,1.0
892e9d6c6.png,Scentless Mayweed,0.9999785423278809
897e5a8de.png,Cleavers,0.9999998807907104
8a30b2de3.png,Sugar beet,0.9993430972099304
8a32d0bfa.png,Small-flowered Cranesbill,1.0
8a4d3a1b1.png,Loose Silky-bent,0.9998645782470703
8a8d6c712.png,Cleavers,0.9999998807907104
8ab8a958b.png,Fat Hen,1.0
8b043093d.png,Small-flowered Cranesbill,1.0
8b27bfd2b.png,Small-flowered Cranesbill,1.0
8b9144917.png,Small-flowered Cranesbill,1.0
8bc0261c9.png,Loose Silky-bent,0.9999358654022217
8c98a6e9b.png,Loose Silky-bent,0.8741260170936584
8c9953903.png,Fat Hen,1.0
8ca6140ca.png,Loose Silky-bent,0.6810519099235535
8cf2e3e6c.png,Common Chickweed,1.0
8cf909eb3.png,Charlock,1.0
8cfd98117.png,Scentless Mayweed,0.9999024868011475
8d6991365.png,Black-grass,0.993405818939209
8d6acbe9b.png,Common Chickweed,0.9999998807907104
8db450ce3.png,Common Chickweed,1.0
8dbb8e1b9.png,Charlock,0.9999994039535522
8e29abce1.png,Scentless Mayweed,0.9985771179199219
8e2e5604e.png,Sugar beet,0.9999998807907104
8e3ed0a25.png,Small-flowered Cranesbill,1.0
8e4eaeec0.png,Common Chickweed,0.9999990463256836
8e6ec1ca6.png,Small-flowered Cranesbill,1.0
8ece6efec.png,Scentless Mayweed,0.9999994039535522
8f523520c.png,Shepherds Purse,0.9999980926513672
8faadb6a8.png,Sugar beet,1.0
90b595f12.png,Common Chickweed,1.0
90d119d25.png,Scentless Mayweed,0.9976617097854614
91e469b4a.png,Charlock,1.0
92292055d.png,Common Chickweed,0.9993928670883179
93079d970.png,Sugar beet,1.0
9326bda1b.png,Common Chickweed,0.9999998807907104
93d76fd5d.png,Small-flowered Cranesbill,1.0
948cdb277.png,Cleavers,1.0
9516e56c4.png,Black-grass,0.9030420780181885
953496deb.png,Fat Hen,1.0
958bb9e96.png,Charlock,0.9999996423721313
963544aa0.png,Black-grass,0.9953502416610718
9643fc5f4.png,Charlock,1.0
966ae5ad9.png,Black-grass,0.6353694200515747
969a851be.png,Scentless Mayweed,0.9999898672103882
96ecad7a1.png,Small-flowered Cranesbill,0.9999998807907104
96f14d90c.png,Sugar beet,1.0
974959ec1.png,Common wheat,0.99985671043396
976e4e079.png,Common Chickweed,1.0
97844bfd5.png,Shepherds Purse,0.9999938011169434
97b2f0a10.png,Small-flowered Cranesbill,1.0
98062cd87.png,Common Chickweed,0.9994034767150879
98d819587.png,Shepherds Purse,0.9999971389770508
98da6ef4e.png,Scentless Mayweed,1.0
99036c51d.png,Loose Silky-bent,0.9853481650352478
99569b224.png,Common wheat,0.999988317489624
995c7ab1e.png,Black-grass,0.720002293586731
9a3f20121.png,Loose Silky-bent,0.9998327493667603
9aa5587fe.png,Loose Silky-bent,0.9993680119514465
9b4800b42.png,Charlock,0.971301794052124
9b9911f20.png,Scentless Mayweed,0.999985933303833
9baf94467.png,Sugar beet,0.9999685287475586
9c0c5b731.png,Loose Silky-bent,0.9999958276748657
9c32a797e.png,Common wheat,0.9997754693031311
9c777333d.png,Common Chickweed,0.9999971389770508
9c8b08a24.png,Loose Silky-bent,0.9990702271461487
9cce7328c.png,Loose Silky-bent,0.9999196529388428
9d3cb4745.png,Common wheat,0.9999902248382568
9d79a1f0c.png,Small-flowered Cranesbill,1.0
9df3275da.png,Small-flowered Cranesbill,1.0
9fab816f2.png,Fat Hen,1.0
a006a475c.png,Common Chickweed,0.960033655166626
a060c1cf8.png,Maize,1.0
a0b393945.png,Small-flowered Cranesbill,0.9981143474578857
a0f37c726.png,Small-flowered Cranesbill,1.0
a169b71e7.png,Charlock,1.0
a19c3faca.png,Shepherds Purse,0.9737257957458496
a1da8be3c.png,Maize,1.0
a1e0a6c02.png,Cleavers,1.0
a254d71f6.png,Loose Silky-bent,0.7887729406356812
a276c65f7.png,Loose Silky-bent,0.9921231865882874
a2b703e21.png,Small-flowered Cranesbill,1.0
a2c89c367.png,Charlock,1.0
a2d25b4f3.png,Small-flowered Cranesbill,1.0
a35fd6fbb.png,Common Chickweed,1.0
a38b8a581.png,Small-flowered Cranesbill,1.0
a3b375b34.png,Loose Silky-bent,0.9616005420684814
a3d0031fd.png,Loose Silky-bent,0.9999760389328003
a4b61a4ea.png,Loose Silky-bent,0.9985017776489258
a544fc46d.png,Scentless Mayweed,0.9999648332595825
a55d26a4c.png,Common Chickweed,0.9999994039535522
a5db42f7d.png,Maize,1.0
a74bf916d.png,Shepherds Purse,0.9999992847442627
a74d475c2.png,Common Chickweed,0.9999963045120239
a7bd7cadb.png,Fat Hen,1.0
a800caead.png,Sugar beet,0.9999998807907104
a83820a2c.png,Sugar beet,1.0
a8388a37f.png,Fat Hen,1.0
a85b48a95.png,Scentless Mayweed,1.0
a85fc8c9a.png,Small-flowered Cranesbill,1.0
a890ac088.png,Charlock,1.0
a8b431a3e.png,Sugar beet,1.0
a8c8a1db0.png,Shepherds Purse,0.9999997615814209
a8da9c08d.png,Charlock,0.9156442284584045
a8de7c1b7.png,Loose Silky-bent,0.9993075132369995
a935ca110.png,Loose Silky-bent,0.9999063014984131
a93f940d6.png,Scentless Mayweed,0.9999997615814209
a9d2eab61.png,Black-grass,0.5584886074066162
aa7d098d1.png,Common Chickweed,1.0
aad8375e0.png,Shepherds Purse,0.9998890161514282
aaf4da98f.png,Sugar beet,0.9999996423721313
ab0f67743.png,Black-grass,0.9882290363311768
ab35453cb.png,Cleavers,1.0
abc331628.png,Common wheat,0.9998574256896973
abf8b0772.png,Scentless Mayweed,0.9999996423721313
ac3193f78.png,Common Chickweed,0.9999991655349731
ac75d3326.png,Loose Silky-bent,0.9274263978004456
acdb75e00.png,Loose Silky-bent,0.997344434261322
ace8761dd.png,Common Chickweed,0.9999982118606567
ad12382d4.png,Loose Silky-bent,0.9984660148620605
adb7a032c.png,Loose Silky-bent,0.9999438524246216
ae90f2827.png,Common Chickweed,1.0
aecfaed64.png,Shepherds Purse,0.9999951124191284
aee6fa3df.png,Loose Silky-bent,0.9999957084655762
af45e222a.png,Scentless Mayweed,0.9999704360961914
afa446484.png,Small-flowered Cranesbill,1.0
afcf6abd5.png,Small-flowered Cranesbill,1.0
b026bf8ca.png,Loose Silky-bent,0.9998828172683716
b03397525.png,Loose Silky-bent,0.9986440539360046
b0acaff4a.png,Black-grass,0.9932115077972412
b130a0632.png,Cleavers,1.0
b145ba9d4.png,Scentless Mayweed,0.9992265701293945
b1cd2a91e.png,Cleavers,0.9999908208847046
b215531dd.png,Cleavers,1.0
b2706e2b3.png,Common wheat,0.9411786794662476
b29339405.png,Loose Silky-bent,0.9989765882492065
b30ab4659.png,Cleavers,0.9999998807907104
b31292706.png,Common Chickweed,0.9999910593032837
b341d0aab.png,Common Chickweed,1.0
b39c71707.png,Maize,0.9999995231628418
b3d6fdb80.png,Shepherds Purse,0.9999978542327881
b3e08b037.png,Fat Hen,1.0
b47691c08.png,Scentless Mayweed,0.9999990463256836
b4c3df835.png,Maize,0.9966753721237183
b4f7c9214.png,Black-grass,0.98207688331604
b573b7a56.png,Loose Silky-bent,0.9997864365577698
b5c7fd009.png,Loose Silky-bent,0.9181056022644043
b62dca166.png,Fat Hen,1.0
b687160f5.png,Small-flowered Cranesbill,1.0
b6a3f7876.png,Black-grass,0.7463553547859192
b6f3d8b5d.png,Scentless Mayweed,0.999996542930603
b7192c70f.png,Common wheat,0.9999740123748779
b7a7f6390.png,Fat Hen,1.0
b7ad92859.png,Shepherds Purse,0.9999994039535522
b828443ff.png,Maize,1.0
b9062c1c8.png,Sugar beet,0.9999985694885254
b944a49ca.png,Loose Silky-bent,0.8893951773643494
b98327bf4.png,Scentless Mayweed,0.9999923706054688
ba3ce6b3e.png,Scentless Mayweed,1.0
bb1c84bbc.png,Loose Silky-bent,0.9998666048049927
bb1d1bfd3.png,Cleavers,0.9999996423721313
bb20fce02.png,Scentless Mayweed,0.999993085861206
bb64660b7.png,Sugar beet,1.0
bb7621cb3.png,Fat Hen,0.9999363422393799
bd72d4d8a.png,Scentless Mayweed,0.999995231628418
bd789d151.png,Common Chickweed,0.9999892711639404
bdde957ec.png,Scentless Mayweed,0.9999808073043823
be2499cf4.png,Black-grass,0.9712492823600769
be341dbdc.png,Loose Silky-bent,0.9999992847442627
bea23d9f8.png,Scentless Mayweed,0.9999995231628418
bebcaab66.png,Scentless Mayweed,0.9999926090240479
beebe5f4e.png,Scentless Mayweed,0.9999998807907104
bf3924a57.png,Common Chickweed,0.7459536790847778
bf66b9cd2.png,Maize,1.0
bfab3e3d0.png,Sugar beet,0.9999997615814209
bffc08672.png,Scentless Mayweed,0.9999969005584717
c0461776c.png,Common Chickweed,1.0
c069fc3fa.png,Fat Hen,0.9999998807907104
c06e7c748.png,Scentless Mayweed,0.9998918771743774
c0bc3997b.png,Scentless Mayweed,0.9999878406524658
c0d9e170b.png,Small-flowered Cranesbill,1.0
c0f5d9ac8.png,Small-flowered Cranesbill,0.9999998807907104
c10ccbd82.png,Scentless Mayweed,0.9999738931655884
c10db7ae2.png,Maize,1.0
c1ecff98b.png,Loose Silky-bent,0.992766261100769
c26ccf73c.png,Common Chickweed,1.0
c2de6020a.png,Small-flowered Cranesbill,1.0
c35efa095.png,Scentless Mayweed,0.9999983310699463
c4ed8ed38.png,Charlock,1.0
c50335991.png,Fat Hen,0.9999979734420776
c5078bac5.png,Black-grass,0.7339292764663696
c5e419015.png,Scentless Mayweed,0.9999979734420776
c5e88cd42.png,Common Chickweed,0.9999969005584717
c60e91e07.png,Loose Silky-bent,0.9884666204452515
c63da993b.png,Sugar beet,1.0
c64370a72.png,Sugar beet,1.0
c6b76307d.png,Cleavers,0.9999905824661255
c6c8d4ba0.png,Black-grass,0.8105478882789612
c7051c902.png,Common Chickweed,1.0
c74c5b7fc.png,Shepherds Purse,0.9999948740005493
c75a82234.png,Scentless Mayweed,0.9994966983795166
c7ae30f3a.png,Scentless Mayweed,0.9999849796295166
c7b07431e.png,Scentless Mayweed,0.9999998807907104
c7eb96871.png,Common wheat,0.9972773194313049
c832e4302.png,Fat Hen,1.0
c85ef220d.png,Common Chickweed,0.9999991655349731
c88ebfb47.png,Small-flowered Cranesbill,1.0
c8f50f0c3.png,Common wheat,0.9957778453826904
caa2fbd79.png,Common Chickweed,0.9999843835830688
cadab6616.png,Shepherds Purse,0.9999982118606567
cae684f8f.png,Charlock,1.0
cb496f36e.png,Loose Silky-bent,0.9975920915603638
cb76a7766.png,Fat Hen,1.0
cbba27d89.png,Maize,1.0
cbe761896.png,Charlock,1.0
cc3d2a59a.png,Sugar beet,0.9999954700469971
cc74feadc.png,Loose Silky-bent,0.8029211759567261
cd5f0db1c.png,Small-flowered Cranesbill,1.0
cd6adba97.png,Small-flowered Cranesbill,1.0
ce15eee52.png,Charlock,1.0
ce3d280eb.png,Common Chickweed,0.9999998807907104
ce42adffb.png,Loose Silky-bent,0.544512152671814
cec5bf198.png,Cleavers,0.8231139779090881
cf3a8b2fd.png,Loose Silky-bent,0.9971843361854553
cf46d09c5.png,Common Chickweed,1.0
cf90fc52d.png,Maize,0.9999998807907104
cfb18d262.png,Scentless Mayweed,0.9999909400939941
cfd8165e9.png,Charlock,1.0
d0152bd7c.png,Fat Hen,1.0
d01873fdd.png,Loose Silky-bent,0.9616588950157166
d09275360.png,Sugar beet,1.0
d09d24c58.png,Loose Silky-bent,0.9999703168869019
d0cdc768f.png,Common wheat,0.9999914169311523
d102e1a15.png,Cleavers,1.0
d14aa43f3.png,Small-flowered Cranesbill,1.0
d17f48d3b.png,Scentless Mayweed,0.999990701675415
d2f0f326e.png,Charlock,0.9976426959037781
d2f422ccb.png,Common Chickweed,1.0
d2fd9df40.png,Loose Silky-bent,0.9855521321296692
d3331e071.png,Fat Hen,0.9999997615814209
d350a25fa.png,Common Chickweed,0.999991774559021
d41d87796.png,Scentless Mayweed,0.9999988079071045
d488a4fe1.png,Common wheat,0.9999589920043945
d515398fd.png,Loose Silky-bent,0.8840025663375854
d563be369.png,Fat Hen,1.0
d5f7dd60a.png,Scentless Mayweed,0.9999949932098389
d668409ff.png,Black-grass,0.7925525903701782
d689256be.png,Common wheat,0.784581184387207
d6c8c3c48.png,Small-flowered Cranesbill,1.0
d6d31dcbe.png,Scentless Mayweed,0.999997615814209
d6d80a321.png,Scentless Mayweed,0.9998648166656494
d7017f701.png,Fat Hen,1.0
d84d37a61.png,Common Chickweed,1.0
d89db156f.png,Small-flowered Cranesbill,1.0
d8f4923f8.png,Common Chickweed,0.9999992847442627
d93c7ab6d.png,Loose Silky-bent,0.9591202735900879
d9c50616e.png,Sugar beet,0.9999997615814209
da231c97f.png,Scentless Mayweed,0.9995404481887817
da4ed3a28.png,Charlock,1.0
da5255450.png,Common Chickweed,1.0
da713c465.png,Black-grass,0.9874535202980042
da9ef7858.png,Charlock,1.0
dabe3e5be.png,Small-flowered Cranesbill,1.0
dabea05f4.png,Loose Silky-bent,0.9999852180480957
dc4cd56a3.png,Loose Silky-bent,0.9973422884941101
dc55449b2.png,Sugar beet,0.9999997615814209
dcd7ff249.png,Scentless Mayweed,0.9999946355819702
dce2f6612.png,Common Chickweed,1.0
dd5ec63d9.png,Sugar beet,1.0
dd9f36df7.png,Small-flowered Cranesbill,1.0
de0b79659.png,Fat Hen,0.9999707937240601
df11d56a7.png,Sugar beet,1.0
df521c0c0.png,Loose Silky-bent,0.9999208450317383
df7cb5f87.png,Common Chickweed,0.9999433755874634
dfb1d9012.png,Loose Silky-bent,0.9913414120674133
e0ec5b6a1.png,Sugar beet,1.0
e14afa235.png,Black-grass,0.9093815088272095
e15472085.png,Common Chickweed,0.9999995231628418
e15fce4f2.png,Scentless Mayweed,0.9998565912246704
e1809cef2.png,Scentless Mayweed,0.9990643858909607
e19673dc9.png,Charlock,1.0
e19ad6ac9.png,Charlock,1.0
e1a0e3202.png,Loose Silky-bent,0.9811501502990723
e1abb4ff9.png,Sugar beet,0.9999998807907104
e3f50adfc.png,Cleavers,1.0
e471f1d3a.png,Charlock,1.0
e478c452c.png,Sugar beet,0.9995808005332947
e4a76885b.png,Maize,1.0
e4d5ec761.png,Loose Silky-bent,0.7622175216674805
e5064f6be.png,Sugar beet,0.9999998807907104
e52493d0b.png,Common wheat,0.9814945459365845
e5297b675.png,Loose Silky-bent,0.9988303780555725
e5368474f.png,Scentless Mayweed,0.9999995231628418
e5881dd33.png,Fat Hen,0.9999998807907104
e5e3dccff.png,Common wheat,0.9999942779541016
e6f1211a2.png,Sugar beet,1.0
e7077322d.png,Scentless Mayweed,0.9999943971633911
e721c6ac8.png,Black-grass,0.9883744716644287
e73e308be.png,Fat Hen,0.9999998807907104
e783f5a4f.png,Sugar beet,1.0
e80a259c5.png,Small-flowered Cranesbill,1.0
e82017baa.png,Black-grass,0.9373608231544495
e84464f5a.png,Cleavers,0.9999986886978149
e88bf0db9.png,Small-flowered Cranesbill,1.0
e901b0f28.png,Fat Hen,0.9999970197677612
e921021a8.png,Fat Hen,1.0
e96e57a90.png,Shepherds Purse,0.9999903440475464
e98e5d1d5.png,Loose Silky-bent,0.9975571632385254
e9cd91682.png,Common Chickweed,1.0
e9d48d664.png,Shepherds Purse,0.9999997615814209
eaf0815e2.png,Small-flowered Cranesbill,1.0
ec08a5d56.png,Small-flowered Cranesbill,1.0
ede6b84b4.png,Cleavers,1.0
edfdb4aeb.png,Scentless Mayweed,0.9999936819076538
eec1079a1.png,Charlock,1.0
eef131644.png,Loose Silky-bent,0.9999752044677734
ef02b4ee7.png,Sugar beet,0.9999998807907104
ef3e232ad.png,Common Chickweed,1.0
ef65533d5.png,Loose Silky-bent,0.8934706449508667
ef74dbcad.png,Scentless Mayweed,0.999998927116394
ef7a5651d.png,Scentless Mayweed,0.999985933303833
ef9676433.png,Charlock,1.0
efe19dc32.png,Charlock,1.0
f0ffa00bd.png,Sugar beet,1.0
f1e87cba7.png,Loose Silky-bent,0.9999973773956299
f1f7c833f.png,Shepherds Purse,0.9999986886978149
f23faf9c1.png,Loose Silky-bent,0.9997838139533997
f25996db8.png,Small-flowered Cranesbill,1.0
f2dc546ca.png,Cleavers,1.0
f33e9d918.png,Scentless Mayweed,0.9962041974067688
f351ce097.png,Loose Silky-bent,0.9999626874923706
f3fcfff1b.png,Cleavers,1.0
f4021df6c.png,Fat Hen,1.0
f4234cf4f.png,Fat Hen,1.0
f445fe6fb.png,Charlock,0.9999998807907104
f48916a8c.png,Scentless Mayweed,0.9999997615814209
f4ad9d950.png,Sugar beet,1.0
f4caf74f9.png,Charlock,1.0
f4e7733d4.png,Small-flowered Cranesbill,1.0
f593c9cf0.png,Sugar beet,1.0
f66ae4070.png,Maize,1.0
f6d250856.png,Shepherds Purse,0.9999809265136719
f8318faf1.png,Scentless Mayweed,0.9999655485153198
f85ed9b6d.png,Shepherds Purse,0.9998002648353577
f9b6bfb00.png,Cleavers,0.9999997615814209
f9ea23fb5.png,Fat Hen,1.0
f9f35cbd4.png,Common Chickweed,1.0
fa5fd1384.png,Shepherds Purse,0.9999995231628418
fa9f3a8f9.png,Cleavers,0.9999998807907104
fadc6adbc.png,Charlock,0.9999997615814209
fb022edf9.png,Sugar beet,0.9998645782470703
fba8fc78a.png,Black-grass,0.895479679107666
fbf88b6be.png,Charlock,1.0
fc3e58836.png,Scentless Mayweed,0.9976067543029785
fc6f686fb.png,Sugar beet,0.9999998807907104
fd253a74e.png,Cleavers,0.9999761581420898
fd87b36ae.png,Loose Silky-bent,0.9995071887969971
fd925f542.png,Common Chickweed,0.9999991655349731
fda0b5c38.png,Common wheat,0.9999936819076538
fda39e16f.png,Loose Silky-bent,0.9994531273841858
fdea6b119.png,Black-grass,0.8620960712432861
fe29629fb.png,Scentless Mayweed,0.8381038904190063
fe9e87b78.png,Scentless Mayweed,0.9999997615814209
fea1d13d6.png,Shepherds Purse,0.9999691247940063
fea355851.png,Loose Silky-bent,0.9998272061347961
fea3da57c.png,Sugar beet,0.9999998807907104
fef2ade8c.png,Sugar beet,1.0
ff65bc002.png,Charlock,1.0
ffc6f8527.png,Common wheat,0.9999953508377075
